[gd_scene load_steps=7 format=1]

[ext_resource path="res://menu/main_menu.gd" type="Script" id=1]
[ext_resource path="res://png/title.png" type="Texture" id=2]
[ext_resource path="res://png/start.png" type="Texture" id=3]
[ext_resource path="res://png/start_italics.png" type="Texture" id=4]
[ext_resource path="res://png/exit.png" type="Texture" id=5]
[ext_resource path="res://png/exit_italics.png" type="Texture" id=6]

[node name="menu" type="CanvasLayer"]

layer = 1
offset = Vector2( 0, 0 )
rotation = 0.0
scale = Vector2( 1, 1 )
script/script = ExtResource( 1 )

[node name="Sprite" type="Sprite" parent="."]

transform/pos = Vector2( 640, 314 )
texture = ExtResource( 2 )

[node name="button_start" type="TextureButton" parent="."]

focus/ignore_mouse = false
focus/stop_mouse = true
size_flags/horizontal = 2
size_flags/vertical = 2
margin/left = 494.0
margin/top = 419.0
margin/right = 791.0
margin/bottom = 542.0
toggle_mode = false
enabled_focus_mode = 2
shortcut = null
textures/normal = ExtResource( 3 )
textures/hover = ExtResource( 4 )

[node name="button_exit" type="TextureButton" parent="."]

focus/ignore_mouse = false
focus/stop_mouse = true
size_flags/horizontal = 2
size_flags/vertical = 2
margin/left = 490.0
margin/top = 510.0
margin/right = 787.0
margin/bottom = 633.0
toggle_mode = false
enabled_focus_mode = 2
shortcut = null
textures/normal = ExtResource( 5 )
textures/hover = ExtResource( 6 )


